log;n:\01-Merogepek\3-Losonczi\Audi 46801036 R800\Audi 46801036 R800_beavatkozási napló.xls
wearingPartsLog;n:\01-Merogepek\3-Losonczi\Audi 46801036 R800\Audi 46801036 R800_WearingPartsLog.txt
[WearingParts]
Keményfém csúcs;720000
Forgató köröm;120000
Fogazott szíj;720000
Forgató motor;720000
Induktív érzékelő;720000
Szíjtárcsa EB-0161-36-1;720000
Szíjtárcsa EB-0161-36-2;720000
Munkheng.csúcsra húzás;720000
Munkheng.mérőpozba mozg;720000
Gumialátét manipulátor;180000
Tokmánypofa;360000
Alk.megfogó szelep;720000
Közelítő kapcs.csúcsra húzáshoz;720000
Közelítő kapcs.megfogáshoz;720000
Rugózó tapintó;180000
Spec.Hossz m.tapintó 6x17;720000
Spec.Hossz m.tapintó 6x20;720000
Spec.Hossz m.tapintó 6x24;720000
Spec.Hossz m.tapintó 6x26,5;720000
Spec.Hossz m.tapintó 6x28,5;720000
Spec.Hossz m.tapintó 6x30,6;720000
Laprugó;360000
nyomórugó D3,6/D0,4x5,6;540000
nyomórugó D3,6/D0,4x8,3;540000
Mérőóravég;720000
Induktív tapintó T202F;720000
Induktív tapintó T102F;720000
Induktív tapintó T101F;720000
Induktív érz.etalon tartó;720000
Induktív érz.selejt tároló;720000
Pneu.munkheneg PH24N2-16/25;360000
Nyomásszabályzó MS4-LFR-1/4-D7-ERM-AS;720000
Kapcsoló szelep;720000
Levegőolajzó;720000
Levegőszűrő;720000
Nyomásszabályzó LRP-1/4-2,5;720000
Mágnesszelep VUVG-L10-M52-MT-1R8L;720000
Mágnesszelep VUVG-S10-M52-MZT-M5-1T1L;360000
Szellőzőrács 10X10-es;360000
Nyomásszabályzó LRMA-QS-4;720000
[/WearingParts]
[KnownProblems]
[/KnownProblems]