log;n:\01-Merogepek\1-Amest\DQ250K\OP100-200 KS686-2\DQ250K OP100-200 KS-686-2_beavatkozási napló.xls
wearingPartsLog;n:\01-Merogepek\1-Amest\DQ250K\OP100-200 KS686-2\KS686-2_DQ250K_P100-200_WearingPartsLog.txt
[WearingParts]
Alsó Fix Ball M4;60000
Alsó Spring Ball;12501;<-89001;16301;kb60000
Felső Fix Ball M4;60000
Felső Spring Ball;60000
Alsó csapágyak;25001;kb60000
Motor 86:1;60000
Méretközlő T1,T2 paralelogrammához;240000
Méretközlő T3,T4 paralelogrammához;240000
Méretközlő T5,T6 paralelogrammához;240000
Méretközlő T7,T8 paralelogrammához;240000
Méretközlő T9,T10 paralelogrammához;240000
T1 Paralelogramma;60000
T2 Paralelogramma;60000
T3 Paralelogramma;60000
T4 Paralelogramma;60000
T5 Paralelogramma;60000
T6 Paralelogramma;60000
T7 Paralelogramma;60000
T8 Paralelogramma;60000
T9 Paralelogramma;60000
T10 Paralelogramma;60000
Laprugó paralelogrammához;60000
Induktív jeladó: kocsi patkó;240000
Induktív jeladó: etalon;240000
Induktív jeladó: kezdő pozíció;240000
V1 Munkaheng poz jeladó BQ1A;240000
V1 Munkaheng poz jeladó BQ1B;240000
V2 Munkaheng poz jeladó BQ2A;240000
V2 Munkaheng poz jeladó BQ2B;240000
V3 Munkaheng poz jeladó BQ3A;240000
V3 Munkaheng poz jeladó BQ3B;240000
V1 szelep beszállító kocsi;240000
V2 szelep felső kocsi;240000
V3 szelep alsó kocsi;240000
V1 munkahenger beszállító kocsi;240000
V2 munkahenger felső kocsi;240000
V3 munkahenger alsó kocsi;240000
Tapintó fej T18;60000
Tapintó fej T19,T21;60000
T1-tapinto;60000
T2-tapinto;60000
T3-tapinto;60000
T4-tapinto;60000
T5-tapinto;60000
T6-tapinto;60000
T7-tapinto;60000
T8-tapinto;60000
T9-tapinto;60000
T10-tapinto;60000
T11-tapinto;60000
T12-tapinto;60000
T13-tapinto;60000
T14-tapinto;60000
T15-tapinto;60000
T16-tapinto;60000
T17-tapinto;60000
T18-tapinto;60000
T19-tapinto;60000
T20-tapinto;60000
T21-tapintó;60000
[/WearingParts]