log;n:\01-Merogepek\1-Amest\DQ381\P700\DQ381 OP700 KS-699_beavatkozási napló.xls
wearingPartsLog;n:\01-Merogepek\1-Amest\DQ381\P700\KS699_DQ381_P700_WearingPartsLog.txt
[WearingParts]
Alsó Fix Ball M6;60000
Alsó Spring Ball M6;60000
Felső Fix Ball M6;60000
Felső Spring Ball M6;60000
Alsó csapágyak;60000
Induktív jeladó: kocsi patkó;240000
Induktív jeladó: etalon;240000
V1 Munkaheng poz jeladó BQ1A;240000
V1 Munkaheng poz jeladó BQ1B;240000
V2 Munkaheng poz jeladó BQ2A;240000
V2 Munkaheng poz jeladó BQ2B;240000
V3 Munkaheng poz jeladó BQ3A;240000
V3 Munkaheng poz jeladó BQ3B;240000
V4 Munkaheng poz jeladü BQ4A;240000
V4 Munkaheng poz jeladü BQ4B;240000
V4 Munkaheng poz jeladü BQ4C;240000
V4 Munkaheng poz jeladü BQ4D;240000
V5 Munkaheng poz jeladü BQ4A;240000
V5 Munkaheng poz jeladü BQ4B;240000
V5 Munkaheng poz jeladü BQ4C;240000
V5 Munkaheng poz jeladü BQ4D;240000
V6 Munkaheng poz jeladü BQ4A;240000
V6 Munkaheng poz jeladü BQ4B;240000
V1 szelep beszállító kocsi;240000
V2 szelep felső kocsi;240000
V3 szelep alsó kocsi;240000
V4 szelep;240000
V5 szelep;240000
V6 szelep;240000
V1 munkahenger beszállító kocsi;240000
V2 munkahenger felső kocsi;240000
V3 munkahenger alsó kocsi;240000
V4 munkahenger;240000
V5 munkahenger;240000
V6 munkahenger;240000
Din fejeket mozgató munkahenger;240000
Méretközlő T9,T10,T11,T12;240000
Méretközlő T16,T17;240000
Dinamikus fej T1,T2;185000;240000
Dinamikus fej T3,T4;185000;240000
Dinamikus fej függőleges T5,T6;185000
T1-tapinto;60000
T2-tapinto;60000
T3-tapinto;60000
T4-tapinto;60000
T5-tapinto;60000
T6-tapinto;60000
T7-tapinto;60000
T8-tapinto;60000
[/WearingParts]